Chapter 4 Preparing your tree and data for PCMs in R | Practical exercises for Methods in Macroecology and Macroevolution module
…
## Discrete traits:  Adult_habitat Life_history Sex_dichromatism 
## The following traits have missing values: Life_history, Sex_dichromatism 
## These taxa were dropped from the tree: Oreobates_quixensis_Strabomantidae, Leptobrachella_dringi_Megophryidae, Megophrys_gerti_Megophryidae, Gastrophryne_carolinensis_Microhylidae, Microhyla_pulverata_Microhylidae 
## These taxa were dropped from the data: Leptobrachella_bidoupensis_Megophryidae, Incilius_nebulifer_Bufonidae, Microhyla_fissipes_Microhylidae, Microhyla_marmorata_Microhylidae 
## $phy 
## 
## Phylogenetic tree with 210 tips and 209 internal nodes.
## 
## Tip labels:
##   Ascaphus_truei_Ascaphidae, Leiopelma_hochstetteri_Leiopelmatidae, Alytes_obstetricans_Alytidae, Discoglossus_pictus_Alytidae, Barbourula_busuangensis_Bombinatoridae, Bombina_orientalis_Bombinatoridae, ...
## 
## Rooted; includes branch lengths.
## 
## $dat 
## # A tibble: 210 x 10
##    Binomial Family Genus Adult_habitat Life_history Sex_dichromatism   SVL
##    <fct>    <fct>  <fct> <fct>         <fct>        <fct>            <dbl>
##  1 Ascaphu… Ascap… Asca… Semiaquatic   Free-living… Absent            39.0
##  2 Leiopel… Leiop… Leio… Semiaquatic   Free-living… Absent            39.0
##  3 Alytes_… Alyti… Alyt… Ground-dwell… Free-living… Absent            37.5
##  4 Discogl… Alyti… Disc… Ground-dwell… Free-living… Absent            62.6
##  5 Barbour… Bombi… Barb… Aquatic       <NA>         Absent            59.5
##  6 Bombina… Bombi… Bomb… Semiaquatic   Free-living… Absent            42.8
##  7 Bombina… Bombi… Bomb… Semiaquatic   Free-living… Absent            76.6
##  8 Rhinoph… Rhino… Rhin… Fossorial     Free-living… Absent            67.7
##  9 Pipa_ca… Pipid… Pipa  Aquatic       Free-living… Absent            46.7
## 10 Pipa_pi… Pipid… Pipa  Aquatic       No free-liv… Absent           119. 
## # … with 200 more rows, and 3 more variables: mass <dbl>, rootmass <dbl>,
## #   eyesize <dbl>
…
